Data Prog R Final Project
…
% of data with Price = 0:  0.48 %

# Print the count of unique Customer ID values where UnitPrice is 0
unique_customer_ids <- unique(data[data$UnitPrice == 0, ]$CustomerID)
cat("Count of unique Customer ID values: ", length(unique_customer_ids), "\n")

Count of unique Customer ID values:  32 

# Display the first few rows where UnitPrice is 0 and CustomerID is not null
print(data[data$UnitPrice == 0 & !is.na(data$CustomerID), ])

# A tibble: 40 × 10
   InvoiceNo StockCode Description        Quantity InvoiceDate         UnitPrice
   <chr>     <chr>     <chr>                 <dbl> <dttm>                  <dbl>
 1 537197    22841     ROUND CAKE TIN VI…        1 2010-12-05 14:02:00         0
 2 539263    22580     ADVENT CALENDAR G…        4 2010-12-16 14:36:00         0
 3 539722    22423     REGENCY CAKESTAND…       10 2010-12-21 13:45:00         0
 4 540372    22090     PAPER BUNTING RET…       24 2011-01-06 16:41:00         0
 5 540372    22553     PLASTERS IN TIN S…       24 2011-01-06 16:41:00         0
 6 541109    22168     ORGANISER WOOD AN…        1 2011-01-13 15:10:00         0
 7 543599    84535B    FAIRY CAKES NOTEB…       16 2011-02-10 13:08:00         0
 8 547417    22062     CERAMIC BOWL WITH…       36 2011-03-23 10:25:00         0
 9 548318    22055     MINI CAKE STAND  …        5 2011-03-30 12:45:00         0
10 548871    22162     HEART GARLAND RUS…        2 2011-04-04 14:42:00         0
# ℹ 30 more rows
# ℹ 4 more variables: CustomerID <dbl>, Country <chr>, NewID <int>,
#   cancellations <dbl>
…
